^C:\USERS\HARDS\GIT\PEACH\COMPILER\X64\DEBUG\MAIN.OBJ
C:\USERS\HARDS\GIT\PEACH\COMPILER\X64\DEBUG\COMPILER.EXE
C:\USERS\HARDS\GIT\PEACH\COMPILER\X64\DEBUG\COMPILER.ILK
C:\USERS\HARDS\GIT\PEACH\COMPILER\X64\DEBUG\COMPILER.PDB
