^C:\USERS\HARDS\GIT\PEACH\COMPILER\DEBUG\MAIN.OBJ
C:\USERS\HARDS\GIT\PEACH\COMPILER\DEBUG\COMPILER.EXE
C:\USERS\HARDS\GIT\PEACH\COMPILER\DEBUG\COMPILER.ILK
C:\USERS\HARDS\GIT\PEACH\COMPILER\DEBUG\COMPILER.PDB
